5
18007306
4
15929795
33
116648716
9
32964756
66
232943333
45
157235403
10
36724340
3
13031671
7
27256656
8
29904854
10
37663926
3
11861892
36
126639609
7
26855206
0
3311460
12
43142067
22
77670888
27
95185085
6
24091625
0
3448478
83
290591531
51
179224310
64
225266572
41
144362189
70
246207016
37
128937305
52
181504209
11
41508005
13
47499787
48
168804984
1
5889085
11
40691498
68
237480376
11
38912477
3
10883513
14
50275768
8
28518441
35
123830032
2
10167938
83
290250069
1
5815539
